<svg height="512" version="1" width="512" xmlns="http://www.w3.org/2000/svg">
    <path d="M0 0h512v512H0z" fill="#3f9c35"/>
    <path d="M0 0h512v341.333H0z" fill="#ed2939"/>
    <path d="M0 0h512v170.667H0z" fill="#00b9e4"/>
    <circle cx="238.827" cy="256" fill="#fff" r="76.8"/>
    <circle cx="255.893" cy="256" fill="#ed2939" r="64"/>
    <path d="M324.16 213.333l8.164 22.958 22.006-10.46-10.46 22.006L366.826 256l-22.958 8.164 10.46 22.006-22.006-10.46-8.164 22.957-8.164-22.958-22.006 10.46 10.46-22.006L281.494 256l22.958-8.164-10.46-22.006 22.006 10.46 8.164-22.957z"
          fill="#fff"/>
</svg>
