<?xml version="1.0" encoding="UTF-8" standalone="no"?>
<svg height="512" version="1" width="512" xmlns="http://www.w3.org/2000/svg">
    <g fill-rule="evenodd">
        <path d="M512.063 511.55H.356V.003h511.707z" fill="#de0000"/>
        <path d="M511.774 511.997H.068V256.224h511.706z" fill="#35a100"/>
    </g>
    <path d="M389 223.773l-82.867 56.55 31.708 91.595-82.766-56.685-82.766 56.67 31.722-91.58-82.853-56.577 102.363.095 31.55-91.636 31.548 91.637" fill="#fff300"
          fill-rule="evenodd"/>
</svg>
