<?xml version="1.0" encoding="UTF-8" standalone="no"?>
<svg height="512" version="1" width="512" xmlns="http://www.w3.org/2000/svg">
    <defs>
        <clipPath id="a">
            <path d="M119.03-196.66h708.66V512H119.03z" fill="gray"/>
        </clipPath>
    </defs>
    <g clip-path="url(#a)" fill-rule="evenodd" stroke-width="1pt" transform="matrix(.7225 0 0 .7225 -86 142.09)">
        <path d="M0-196.66h1063V512H0z" fill="#e10011"/>
        <path d="M216.66 511.66L0 512v-708.66l215.64.113 139.14 44.743-138.12 43.614 138.12 44.968-138.12 43.615L354.78 25.36 216.66 68.976l138.12 44.968-138.12 43.615 138.12 44.97-138.12 43.613 138.12 44.97-138.12 43.614 138.12 44.968-138.12 43.615 138.12 44.968-138.12 43.615"
              fill="#fff"/>
    </g>
</svg>
