<?xml version="1.0" encoding="UTF-8" standalone="no"?>
<svg fill="#28ff09" height="512" width="512" xmlns="http://www.w3.org/2000/svg">
    <g fill-rule="evenodd">
        <path d="M0 344.64h512V512H0z" fill="#009a00"/>
        <path d="M0 0h512v175H0z" fill="red"/>
        <path d="M0 175h512v169.65H0z" fill="#ff0"/>
    </g>
</svg>
