<?xml version="1.0" encoding="UTF-8" standalone="no"?>
<svg height="512" width="512" xmlns="http://www.w3.org/2000/svg">
    <g fill-rule="evenodd">
        <path d="M0 0h511.993v511.984H0z" fill="#00cbff"/>
        <path d="M0 191.99h511.993v128.002H0z" fill="#fff"/>
        <path d="M0 212.675h511.993v86.438H0z"/>
    </g>
</svg>
