<?xml version="1.0" encoding="UTF-8" standalone="no"?>
<svg height="512" width="512" xmlns="http://www.w3.org/2000/svg">
    <path d="M0 0h512v512H0z" fill="#006"/>
    <g stroke-width="1pt">
        <path d="M0 0v20.46L325.08 183H366v-20.46L40.92 0H0zm366 0v20.46L40.92 183H0v-20.46L325.08 0H366z" fill="#fff"/>
        <path d="M152.5 0v183h61V0h-61zM0 61v61h366V61H0z" fill="#fff"/>
        <path d="M0 73.2v36.6h366V73.2H0zM164.7 0v183h36.6V0h-36.6zM0 183l122-61h27.28l-122 61H0zM0 0l122 61H94.72L0 13.64V0zm216.72 61l122-61H366L244 61h-27.28zM366 183l-122-61h27.28L366 169.36V183z"
              fill="#c00"/>
    </g>
    <g fill="#fff" fill-rule="evenodd">
        <path d="M336.822 250.103l5.71-18.307-15.39-11.693 19.39-.247 6.46-18.053 6.27 18.15 19.392.533-15.516 11.463 5.522 18.39-15.86-11.07M382.506 253.7L393.94 238.4l-10.633-16.252 18.35 6.364 12.054-14.81-.094 19.233 18.093 7.1-18.41 5.52-.878 19.202-11.28-15.822M293.076 265.378l-.762-19.185-18.39-5.694 18.153-6.915.03-19.206 11.976 14.91 18.416-6.183-10.754 16.13 11.353 15.392-18.625-4.946M260.88 294.564l-8.053-17.376-19.127 2.004 14.078-13.528-7.332-17.707 16.748 9.017 14.6-12.957-3.728 19.1 16.358 9.707-19.054 2.786M246.18 336.653l-14.618-12.198-16.433 10.127 7-18.342-14.107-12.81 18.942.864 7.714-18.054 4.703 18.877 18.88 1.657-16.036 10.802M245.83 383.933l-18.195-5.29-11.105 15.923-.77-19.654-17.97-6.058 17.718-6.852-.005-19.677 11.72 15.42 17.973-6.1-10.475 16.382M267.137 423.876l-18.75 2.63-3.804 19.12-8.545-17.658-18.848 1.834 13.47-13.537-7.855-17.993 16.87 9.292 14.002-12.955-3.045 19.28M300.1 455.57l-16.704 9.035 2.938 19.275-14.03-13.578-17.065 8.32 8.032-17.42-13.495-14.136 18.995 2.812 8.732-17.062 3.705 19.162M340.334 461.83l-9.115 16.827 12.85 14.51-19.067-3.59-9.802 16.433-2.664-19.042-18.92-4.35 17.42-8.18-1.886-19.13 13.432 13.99M385.52 454.88l-.568 19.194 17.952 6.99-18.588 5.604-1.358 19.156-10.915-15.727-18.8 4.857 11.844-15.324-10.26-16.162 18.235 6.257M432.873 246.535l13.118 13.842 17.487-8.116-9.062 17.39 12.54 14.39-18.714-3.096-9.734 17.02-2.504-19.305-18.562-3.878 17.17-8.833M472.154 289.13l5.955 18.225 19.225.323-15.567 11.73 5.2 18.466-15.57-10.977-16.017 11.1 5.946-18.513-15.102-11.615 19.246-.464M486.917 343.88l-2.204 19.07 17.29 8.538-18.998 3.952-2.987 18.965-9.532-16.626-19.143 3.188 13.106-14.227-8.844-17.002 17.633 7.835M476.518 401.278l-8.53 17.14 13.34 14.046-19.177-2.91-9.23 16.767-3.32-18.935-19.056-3.68 17.128-8.79-2.542-19.05 13.904 13.505M448.21 452.325l-16.116 10.07 4.114 19.054-14.835-12.668-16.52 9.382 6.948-17.895-14.334-13.258 19.13 1.608 7.67-17.58 4.872 18.892"/>
    </g>
</svg>
