<?xml version="1.0" encoding="UTF-8" standalone="no"?>
<svg height="512" version="1" width="512" xmlns="http://www.w3.org/2000/svg">
    <defs>
        <clipPath id="a">
            <path d="M102.42 0h708.66v708.66H102.42z" fill-opacity=".67"/>
        </clipPath>
    </defs>
    <g clip-path="url(#a)" fill-rule="evenodd" stroke-width="1pt" transform="matrix(.722 0 0 .722 -74 0)">
        <path d="M0 0h1063v708.66H0z" fill="#e80000"/>
        <path d="M0 0h1063v354.33H0z" fill="#fff"/>
        <path d="M0 0l529.732 353.88L0 707.3V0z" fill="#00006f"/>
    </g>
</svg>
