<?xml version="1.0" encoding="UTF-8" standalone="no"?>
<svg height="512" version="1" width="512" xmlns="http://www.w3.org/2000/svg">
    <defs>
        <clipPath id="a">
            <path d="M55.364 0h708.66v708.66H55.364z" fill-opacity=".67"/>
        </clipPath>
    </defs>
    <g clip-path="url(#a)" fill-rule="evenodd" transform="matrix(.722 0 0 .722 -40 0)">
        <path d="M0 0h1063v708.66H0z" fill="#0c0"/>
        <path d="M0 0h1063v354.33H0z" fill="#69f"/>
        <path d="M0 0l529.732 353.88L0 707.3V0z" fill="#fffefe"/>
        <path d="M221.193 404.247l-42.66-30.71-42.45 31.012 15.79-50.395-42.374-31.118 52.422-.434 16.26-50.24 16.607 50.125 52.422.066-42.156 31.41 16.137 50.283z"
              fill="red"/>
    </g>
</svg>
