<?xml version="1.0" encoding="UTF-8" standalone="no"?>
<svg height="512" version="1" width="512" xmlns="http://www.w3.org/2000/svg">
    <g fill-rule="evenodd" stroke-width="1pt">
        <path d="M0 0h512.005v512H0z" fill="#fff"/>
        <path d="M0 0h170.667v512H0z" fill="#00267f"/>
        <path d="M341.333 0H512v512H341.333z" fill="#f31830"/>
    </g>
</svg>
