<svg height="512" version="1" width="512" xmlns="http://www.w3.org/2000/svg">
    <path d="M512 0v512L0 0z" fill="#078930"/>
    <path d="M0 0l512 512H0z" fill="#fcdd09"/>
    <path d="M256 180.148l44.585 137.217L183.86 232.56h144.28l-116.725 84.805z" fill="#da121a"/>
</svg>
