<?xml version="1.0" encoding="UTF-8" standalone="no"?>
<svg height="512" version="1" width="512" xmlns="http://www.w3.org/2000/svg">
    <defs>
        <clipPath id="a">
            <path d="M0 0h512v512H0z" fill-opacity=".67"/>
        </clipPath>
    </defs>
    <g clip-path="url(#a)" fill-rule="evenodd">
        <path d="M619.43 512H-112V0h731.43z" fill="#fff"/>
        <path d="M619.43 115.23H-112V48.003h731.43zM619.43 465.68H-112v-67.227h731.43zM136.43 190.78l110.12 191.54 112.49-190.75-222.61-.79z"
              fill="#00c"/>
        <path d="M225.75 317.81l20.95 35.506 21.4-35.36-42.35-.145z" fill="#fff"/>
        <path d="M136.02 320.58l110.13-191.54 112.48 190.75-222.61.79z" fill="#00c"/>
        <path d="M225.75 191.61l20.95-35.506 21.4 35.36-42.35.145zM181.97 271.11l-21.64 35.982 40.9-.127-19.26-35.855zM160.7 204.61l41.225.29-19.834 36.26-21.39-36.55zM311.94 271.52l20.83 35.576-41.71-.533 20.88-35.043zM332.39 204.61l-41.225.29L311 241.16l21.39-36.55zM218.12 204.57l-28.394 51.515 28.8 50.297 52.73 1.217 32.044-51.515-29.61-51.92-55.572.405z"
              fill="#fff"/>
    </g>
</svg>
