<?xml version="1.0" encoding="UTF-8" standalone="no"?>
<svg height="512" id="svg570" version="1.1" width="512"
     xmlns="http://www.w3.org/2000/svg" xmlns:cc="http://creativecommons.org/ns#" xmlns:dc="http://purl.org/dc/elements/1.1/"
     xmlns:rdf="http://www.w3.org/1999/02/22-rdf-syntax-ns#">
    <metadata id="metadata4835">
        <rdf:RDF>
            <cc:Work rdf:about="">
                <dc:format>image/svg+xml</dc:format>
                <dc:type rdf:resource="http://purl.org/dc/dcmitype/StillImage"/>
            </cc:Work>
        </rdf:RDF>
    </metadata>
    <defs id="defs572">
        <clipPath clipPathUnits="userSpaceOnUse" id="clipPath5131">
            <rect fill-opacity="0.67" height="491.68" id="rect5133" width="491.68" x="161.78" y="5.7533"/>
        </clipPath>
    </defs>
    <g clip-path="url(#clipPath5131)" id="flag" transform="matrix(1.0413 0 0 1.0413 -168.47 -5.991)">
        <rect fill="#e73e2d" fill-rule="evenodd" height="294.33" id="rect574" stroke-width="1pt" width="802.62" x="4.0232"
              y="5.7533"/>
        <path d="m330.31 587.19c-14.59-11.391-41.764-7.538-46.24-38.5 20.807 16.117 17.03-0.921 48.106 14.435l-1.866 24.065z"
              fill="#fec74a"
              fill-rule="evenodd" id="path605" stroke="#d8aa3f"
              stroke-width="1.25" transform="matrix(1.2792 0 0 1.2792 -64.564 -474.49)"/>
        <path d="m330.31 587.19c-14.59-11.391-41.764-7.538-46.24-38.5 20.807 16.117 17.03-0.921 48.106 14.435l-1.866 24.065z"
              fill="#fec74a"
              fill-rule="evenodd" id="path564" stroke="#d8aa3f"
              stroke-width="1.25" transform="matrix(1.2177 .39191 -.39191 1.2177 190.84 -585.83)"/>
        <path d="m330.31 587.19c-14.59-11.391-41.764-7.538-46.24-38.5 20.807 16.117 17.03-0.921 48.106 14.435l-1.866 24.065z"
              fill="#fec74a"
              fill-rule="evenodd" id="path565" stroke="#d8aa3f"
              stroke-width="1.25" transform="matrix(.97537 .8277 -.8277 .97537 532.83 -600.28)"/>
        <path d="m330.31 587.19c-14.59-11.391-41.764-7.538-46.24-38.5 20.807 16.117 17.03-0.921 48.106 14.435l-1.866 24.065z"
              fill="#fec74a"
              fill-rule="evenodd" id="path566" stroke="#d8aa3f"
              stroke-width="1.25" transform="matrix(.67418 1.0872 -1.0872 .67418 798.64 -521.04)"/>
        <path d="m330.31 587.19c-14.59-11.391-41.764-7.538-46.24-38.5 20.807 16.117 17.03-0.921 48.106 14.435l-1.866 24.065z"
              fill="#fec74a"
              fill-rule="evenodd" id="path567" stroke="#d8aa3f"
              stroke-width="1.25" transform="matrix(.16998 1.2679 -1.2679 .16998 1083.7 -294.22)"/>
        <path d="m330.31 587.19c-14.59-11.391-41.764-7.538-46.24-38.5 20.807 16.117 17.03-0.921 48.106 14.435l-1.866 24.065z"
              fill="#fec74a"
              fill-rule="evenodd" id="path568" stroke="#d8aa3f"
              stroke-width="1.25" transform="matrix(-.24063 1.2564 -1.2564 -.24063 1230.7 -46.802)"/>
        <path d="m330.31 587.19c-14.59-11.391-41.764-7.538-46.24-38.5 20.807 16.117 17.03-0.921 48.106 14.435l-1.866 24.065z"
              fill="#fec74a"
              fill-rule="evenodd" id="path569" stroke="#d8aa3f"
              stroke-width="1.25" transform="matrix(-.59878 1.1304 -1.1304 -.59878 1290.9 214.3)"/>
        <path d="m330.31 587.19c-14.59-11.391-41.764-7.538-46.24-38.5 20.807 16.117 17.03-0.921 48.106 14.435l-1.866 24.065z"
              fill="#fec74a"
              fill-rule="evenodd" id="path570" stroke="#d8aa3f"
              stroke-width="1.25" transform="matrix(-.89277 .91619 -.91619 -.89277 1275.5 472.17)"/>
        <path d="m368.35 490.64-15.346 82.734 22.91 1.164-7.564-83.898z" fill="#fec74a" fill-rule="evenodd"
              id="path598" stroke="#d8aa3f" stroke-width="1.25"
              transform="matrix(.26085 1.2524 -1.2524 .26085 1044.6 -334.24)"/>
        <path d="m368.53 489.85-15.035 82.136 28.185 1.899-13.15-84.035z" fill="#fec74a" fill-rule="evenodd"
              id="path597" stroke="#d8aa3f" stroke-width="1.25"
              transform="matrix(.66596 1.0922 -1.0922 .66596 799.97 -513.24)"/>
        <path d="m380.1 573.4-11.751-82.765-14.86 83.198 26.611-0.433z" fill="#fec74a" fill-rule="evenodd"
              id="path596" stroke="#d8aa3f" stroke-width="1.25"
              transform="matrix(1.0226 .76853 -.76853 1.0226 483.2 -603.22)"/>
        <path d="m381.86 573.24-13.513-82.602-15.405 82.535 28.918 0.067z" fill="#fec74a" fill-rule="evenodd"
              id="path595" stroke="#d8aa3f" stroke-width="1.2539"
              transform="matrix(1.2145 .40191 -.39943 1.207 195.37 -577.79)"/>
        <path d="m381.89 573.4-13.539-82.764-15.006 83.126 28.545-0.362z" fill="#fec74a" fill-rule="evenodd"
              id="path594" stroke="#d8aa3f" stroke-width="1.25"
              transform="matrix(1.2792 0 0 1.2792 -64.564 -474.49)"/>
        <path d="m378.51 569.67-10.159-79.033-17.918 83.552 28.077-4.519z" fill="#fec74a" fill-rule="evenodd"
              id="path604" stroke="#d8aa3f" stroke-width="1.2526"
              transform="matrix(1.1791 -.48860 .48383 1.1816 -306.93 -238.21)"/>
        <path d="m378.51 569.67-10.159-79.033-17.785 83.489 27.944-4.456z" fill="#fec74a" fill-rule="evenodd"
              id="path603" stroke="#d8aa3f" stroke-width="1.25"
              transform="matrix(.94317 -.86422 .86422 .94317 -442.11 39.108)"/>
        <path d="m368.35 490.64-19.61 82.464 29.769-3.431-10.159-79.033z" fill="#fec74a" fill-rule="evenodd"
              id="path601" stroke="#d8aa3f" stroke-width="1.25"
              transform="matrix(.56417 -1.1481 1.1481 .56417 -469.18 362.06)"/>
        <path d="m373.86 567.25-5.513-76.612-18.876 78.389 24.389-1.777z" fill="#fec74a" fill-rule="evenodd"
              id="path600" stroke="#d8aa3f" stroke-width="1.25"
              transform="matrix(.10974 -1.2745 1.2745 .10974 -379.33 670.51)"/>
        <path d="m429.77 602.07c0 24.163-19.588 43.751-43.751 43.751s-43.751-19.588-43.751-43.751 19.588-43.751 43.751-43.751 43.751 19.588 43.751 43.751z"
              fill="#fec74a"
              fill-rule="evenodd" id="path575" stroke="#d8aa3f"
              stroke-width="1.187" transform="matrix(1.3472 0 0 1.3472 -114.56 -537.17)"/>
        <rect fill="#005989" fill-rule="evenodd" height="200.33" id="rect586" stroke-width="1pt" width="806.58" x="3.2151"
              y="297.11"/>
        <path d="m53.601 716.23c11.673 5.426 28.396 19.007 46.283 18.995 29.929-0.195 30.726-20.588 61.043-19.618 30.396 0.777 24.898 22.246 65.942 22.139 33.911-0.089 44.866-26.023 74.097-22.916 21.648-1.119 30.508 24.558 63.782 24.884 34.511 0.741 47.183-27.986 68.832-25.608 23.063 0 30.618 23.137 62.974 23.304 41.211 0.209 48.456-24.081 74.238-22.527 18.35-0.389 32.82 17.802 59.711 18.255 21.457 0.367 39.42-15.925 51.555-21.751l0.6-27.646c-12.718 4.75-31.681 20.324-50.644 20.495-27.288 1.003-44.169-17.976-63.132-17.805-22.72 0.205-31.774 23.485-70.316 23.485-35.211 0-43.29-23.485-66.011-23.485-22.208 0.171-29.012 25.543-67.459 25.073-31.363-0.379-43.583-24.219-65.792-24.048-23.544 0-47.89 23.182-73.96 22.063-35.982-1.527-43.756-22.063-67.3-22.063-17.596 0-36.586 19.244-57.784 19.565-21.082 0.326-44.766-19.149-46.959-19.565l0.3003 28.774z"
              fill="#fff"
              fill-rule="evenodd" id="path573" transform="matrix(1.2848 0 0 1.2792 -66.112 -474.49)"/>
        <path d="m53.601 716.23c11.673 5.426 28.396 19.007 46.283 18.995 29.929-0.195 30.726-20.588 61.043-19.618 30.396 0.777 24.898 22.246 65.942 22.139 33.911-0.089 44.866-26.023 74.097-22.916 21.648-1.119 30.508 24.558 63.782 24.884 34.511 0.741 47.183-27.986 68.832-25.608 23.063 0 30.618 23.137 62.974 23.304 41.211 0.209 48.456-24.081 74.238-22.527 18.35-0.389 32.82 17.802 59.711 18.255 21.457 0.367 39.42-15.925 51.555-21.751l0.6-27.646c-12.718 4.75-31.681 20.324-50.644 20.495-27.288 1.003-44.169-17.976-63.132-17.805-22.72 0.205-31.774 23.485-70.316 23.485-35.211 0-43.29-23.485-66.011-23.485-22.208 0.171-29.012 25.543-67.459 25.073-31.363-0.379-43.583-24.219-65.792-24.048-23.544 0-47.89 23.182-73.96 22.063-35.982-1.527-43.756-22.063-67.3-22.063-17.596 0-36.586 19.244-57.784 19.565-21.082 0.326-44.766-19.149-46.959-19.565l0.3003 28.774z"
              fill="#fff"
              fill-rule="evenodd" id="path578" transform="matrix(1.2848 0 0 1.2792 -66.112 -544.53)"/>
        <path d="m53.601 716.23c11.673 5.426 28.396 19.007 46.283 18.995 29.929-0.195 30.726-20.588 61.043-19.618 30.396 0.777 24.898 22.246 65.942 22.139 33.911-0.089 44.866-26.023 74.097-22.916 21.648-1.119 30.508 24.558 63.782 24.884 34.511 0.741 47.183-27.986 68.832-25.608 23.063 0 30.618 23.137 62.974 23.304 41.211 0.209 48.456-24.081 74.238-22.527 18.35-0.389 32.82 17.802 59.711 18.255 21.457 0.367 39.42-15.925 51.555-21.751l0.6-27.646c-12.718 4.75-31.681 20.324-50.644 20.495-27.288 1.003-44.169-17.976-63.132-17.805-22.72 0.205-31.774 23.485-70.316 23.485-35.211 0-43.29-23.485-66.011-23.485-22.208 0.171-29.012 25.543-67.459 25.073-31.363-0.379-43.583-24.219-65.792-24.048-23.544 0-47.89 23.182-73.96 22.063-35.982-1.527-43.756-22.063-67.3-22.063-17.596 0-36.586 19.244-57.784 19.565-21.082 0.326-44.766-19.149-46.959-19.565l0.3003 28.774z"
              fill="#fff"
              fill-rule="evenodd" id="path579" transform="matrix(1.2836 0 0 1.2792 -66.048 -613.81)"/>
        <path d="m279.65 432.43c45.829-3.138 37.476-7.052 55.922-9.996 23.245 3.196 25.903 17.269 38.855 25.903 0 0-4.868 16.46-20.799 14.13-2.142-6.603 7.712-8.644-20.642-25.929-16.484-0.981-45.98 2.893-53.336-4.108z"
              fill="#ffc84b"
              fill-rule="evenodd" id="path587" stroke="#d8aa3f"
              stroke-width="1pt" transform="matrix(1.2792 0 0 1.2792 -64.564 -474.49)"/>
        <path d="m385.69 468 33.015-1.359v-8.157c-22.269-0.712-26.283 2.266-33.015 9.516z" fill="#ffc84b"
              fill-rule="evenodd" id="path591" stroke="#d8aa3f"
              stroke-width="1pt" transform="matrix(-1.2792 0 0 -1.2792 968.3 709.96)"/>
        <path d="m308.2 456.54c5.754-2.943 8.616-1.742 13.601-1.936 3.431 6.214 6.668 6.797 14.177 7.574 11.458 16.119 27.577 16.313 29.907 16.313 22.463-0.583 29.584-16.313 44.667-18.061h15.925c-2.654-4.531-4.726-7.121-10.487-7.38-11.847-0.647-27.188-0.323-40.588 2.719l-18.838 4.661c-5.503-2.654-18.967-16.766-27.577-16.507-5.049 1.359-5.049 3.107-7.574 5.049-4.855 2.072-9.711 1.079-13.213 7.568z" fill="#ffc84b"
              fill-rule="evenodd"
              id="path590" stroke="#d8aa3f" stroke-linejoin="round"
              stroke-width="1.25" transform="matrix(1.2792 0 0 1.2792 -64.564 -474.49)"/>
        <path d="m330.54 451.11c0 1.7161-1.3912 3.1073-3.1072 3.1073-1.7161 0-3.1072-1.3912-3.1072-3.1073s1.3912-3.1073 3.1072-3.1073c1.7161 0 3.1072 1.3912 3.1072 3.1073z"
              fill="#ffc84b"
              fill-rule="evenodd" id="path589" stroke="#d8aa3f"
              stroke-width="1.6303" transform="matrix(.98084 0 0 .98084 34.528 -341.73)"/>
        <path d="m346.27 456.35c33.727-40.653 63.181-35.669 101.57-38.452 1.295 4.726 0.842 11.782-17.478 18.061-25.052 3.69-69.914 30.101-70.108 30.101-8.352-0.388-14.178-9.127-13.983-9.71z"
              fill="#ffc84b"
              fill-rule="evenodd" id="path588" stroke="#d8aa3f"
              stroke-width="1pt" transform="matrix(1.2792 0 0 1.2792 -64.564 -474.49)"/>
        <path d="m415.56 429.86 24.874 1.078" fill="none" id="path592"
              stroke="#d9a43e" stroke-linecap="round" stroke-width="1pt" transform="matrix(1.2792 0 0 1.2792 -64.564 -474.49)"/>
        <path d="m412.86 433.92 18.131 1.479" fill="none" id="path593"
              stroke="#d9a43e" stroke-linecap="round" stroke-width="1pt" transform="matrix(1.2792 0 0 1.2792 -64.564 -474.49)"/>
    </g>
</svg>
