<svg height="512" version="1" width="512" xmlns="http://www.w3.org/2000/svg">
    <path d="M512 0H0v512h512z" fill="#c1272d"/>
    <path d="M256 191.415L218.054 308.21l99.33-72.156h-122.77l99.33 72.157z" fill="none" stroke="#006233"
          stroke-width="12.484"/>
</svg>
