<?xml version="1.0" encoding="UTF-8" standalone="no"?>
<svg height="512" id="canada" version="1.1" width="512"
     xmlns="http://www.w3.org/2000/svg" xmlns:cc="http://creativecommons.org/ns#" xmlns:dc="http://purl.org/dc/elements/1.1/" xmlns:rdf="http://www.w3.org/1999/02/22-rdf-syntax-ns#">
    <metadata id="metadata3519">
        <rdf:RDF>
            <cc:Work rdf:about="">
                <dc:format>image/svg+xml</dc:format>
                <dc:type rdf:resource="http://purl.org/dc/dcmitype/StillImage"/>
            </cc:Work>
        </rdf:RDF>
    </metadata>
    <g fill-rule="evenodd" id="flag" transform="matrix(.68808 0 0 1.0321 0 .00011106)">
        <rect fill="#f00" height="496.06" id="rect563" width="249.09" x="495" y="-.000031"/>
        <rect fill="#009a00" height="496.06" id="rect562" width="247.5" x="0" y="-.000015260"/>
        <rect fill="#ff0" height="496.06" id="rect564" width="248.75" x="247.5" y="-0.000091"/>
    </g>
</svg>
