<?xml version="1.0" encoding="UTF-8" standalone="no"?>
<svg height="512" id="svg548" version="1.1" width="512"
     xmlns="http://www.w3.org/2000/svg" xmlns:cc="http://creativecommons.org/ns#" xmlns:dc="http://purl.org/dc/elements/1.1/" xmlns:rdf="http://www.w3.org/1999/02/22-rdf-syntax-ns#">
    <metadata id="metadata4337">
        <rdf:RDF>
            <cc:Work rdf:about="">
                <dc:format>image/svg+xml</dc:format>
                <dc:type rdf:resource="http://purl.org/dc/dcmitype/StillImage"/>
            </cc:Work>
        </rdf:RDF>
    </metadata>
    <g id="flag" transform="matrix(.51251 0 0 .76877 0 -8.2e-7)">
        <g fill-rule="evenodd" id="g555" stroke-width="1pt" transform="scale(8.325)">
            <rect fill="#00319c" height="80" id="rect551" width="40" x="0" y="0"/>
            <rect fill="#ffde00" height="80" id="rect552" width="40" x="40" y="0"/>
            <rect fill="#de2110" height="80" id="rect553" width="40" x="80" y="0"/>
        </g>
    </g>
</svg>
