<?xml version="1.0" encoding="UTF-8" standalone="no"?>
<svg height="512" id="svg378" version="1" width="512"
     x="0" xmlns="http://www.w3.org/2000/svg" xmlns:cc="http://creativecommons.org/ns#" xmlns:dc="http://purl.org/dc/elements/1.1/" xmlns:rdf="http://www.w3.org/1999/02/22-rdf-syntax-ns#"
     y="0">
    <metadata id="metadata3750">
        <rdf:RDF>
            <cc:Work rdf:about="">
                <dc:format>image/svg+xml</dc:format>
                <dc:type rdf:resource="http://purl.org/dc/dcmitype/StillImage"/>
            </cc:Work>
        </rdf:RDF>
    </metadata>
    <g fill-rule="evenodd" id="flag" stroke-width="1pt" transform="translate(0 -196.66)">
        <rect fill="#fff" height="512" id="rect171" width="512" x="0" y="196.66"/>
        <rect fill="#00267f" height="512" id="rect403" width="170.67" x="0" y="196.66"/>
        <rect fill="#f31830" height="512" id="rect135" width="170.67" x="341.33" y="196.66"/>
    </g>
</svg>
