<svg height="512" version="1" width="512" xmlns="http://www.w3.org/2000/svg">
    <path d="M0 255h512v2H0zM0 510h512v2H0zM0 0h512v2H0z" fill-rule="evenodd"/>
    <path d="M255 0h2v512h-2zM0 0h2v512H0zM510 0h2v512h-2z" fill-rule="evenodd"/>
</svg>
