<?xml version="1.0" encoding="UTF-8" standalone="no"?>
<svg height="480" viewBox="0 0 6.4 4.8" width="640" xmlns="http://www.w3.org/2000/svg">
    <path d="M0 0h6.4v4.8H0z" fill="#21468b"/>
    <path d="M0 0h6.4v3.2H0z" fill="#fff"/>
    <path d="M0 0h6.4v1.6H0z" fill="#ae1c28"/>
</svg>
