<?xml version="1.0" encoding="UTF-8" standalone="no"?>
<svg height="480" width="640" xmlns="http://www.w3.org/2000/svg" xmlns:xlink="http://www.w3.org/1999/xlink">
    <defs>
        <path d="M0-1l.225.69H.95L.364.12l.225.69L0 .383-.588.81l.225-.692L-.95-.31h.725z" id="b"/>
        <clipPath id="a">
            <path d="M0 0h682.67v512H0z" fill-opacity=".67"/>
        </clipPath>
    </defs>
    <g clip-path="url(#a)" transform="matrix(.94 0 0 .94 0 0)">
        <path d="M0 0h768v512H0z" fill="#002b7f"/>
        <path d="M0 320h768v64H0z" fill="#f9e814"/>
        <use fill="#fff" height="9000" transform="scale(42.67)" width="13500" x="2" xlink:href="#b" y="2"/>
        <use fill="#fff" height="9000" transform="scale(56.9)" width="13500" x="3" xlink:href="#b" y="3"/>
    </g>
</svg>
