<svg height="480" width="640" xmlns="http://www.w3.org/2000/svg">
    <path d="M0 0h640.1v480H0z" fill="#c60c30"/>
    <path d="M205.714 0h68.57v480h-68.57z" fill="#fff"/>
    <path d="M0 205.714h640.1v68.57H0z" fill="#fff"/>
</svg>
