<svg height="480" version="1" width="640" xmlns="http://www.w3.org/2000/svg" xmlns:xlink="http://www.w3.org/1999/xlink">
    <path d="M0 0h640v160H0z" fill="#f93"/>
    <path d="M0 160h640v160H0z" fill="#fff"/>
    <path d="M0 320h640v160H0z" fill="#128807"/>
    <g transform="matrix(3.2 0 0 3.2 320 240)">
        <circle fill="#008" r="20"/>
        <circle fill="#fff" r="17.5"/>
        <circle fill="#008" r="3.5"/>
        <g id="d">
            <g id="c">
                <g id="b">
                    <g fill="#008" id="a">
                        <circle r=".875" transform="rotate(7.5 -8.75 133.5)"/>
                        <path d="M0 17.5L.6 7 0 2l-.6 5L0 17.5z"/>
                    </g>
                    <use height="100%" transform="rotate(15)" width="100%" xlink:href="#a"/>
                </g>
                <use height="100%" transform="rotate(30)" width="100%" xlink:href="#b"/>
            </g>
            <use height="100%" transform="rotate(60)" width="100%" xlink:href="#c"/>
        </g>
        <use height="100%" transform="rotate(120)" width="100%" xlink:href="#d"/>
        <use height="100%" transform="rotate(-120)" width="100%" xlink:href="#d"/>
    </g>
</svg>
