<?xml version="1.0" encoding="UTF-8" standalone="no"?>
<svg height="480" id="svg378" version="1" width="640"
     x="0" xmlns="http://www.w3.org/2000/svg" xmlns:cc="http://creativecommons.org/ns#" xmlns:dc="http://purl.org/dc/elements/1.1/" xmlns:rdf="http://www.w3.org/1999/02/22-rdf-syntax-ns#"
     y="0">
    <metadata id="metadata4637">
        <rdf:RDF>
            <cc:Work rdf:about="">
                <dc:format>image/svg+xml</dc:format>
                <dc:type rdf:resource="http://purl.org/dc/dcmitype/StillImage"/>
            </cc:Work>
        </rdf:RDF>
    </metadata>
    <defs id="defs380">
        <clipPath clipPathUnits="userSpaceOnUse" id="clipPath3121">
            <rect fill-opacity="0.67" height="480" id="rect3123" width="640" x="-88.001" y="32"/>
        </clipPath>
    </defs>
    <g clip-path="url(#clipPath3121)" fill-rule="evenodd" id="flag" stroke-width="1pt"
       transform="translate(88.001 -32)">
        <rect fill="#fff" height="480" id="rect149" width="720" x="-128" y="32"/>
        <ellipse cx="523.08"
                 cy="344.05"
                 d="m 718.01048,344.04666 c 0,107.65611 -87.27252,194.92862 -194.92863,194.92862 -107.65611,0 -194.92864,-87.27251 -194.92864,-194.92862 0,-107.6561 87.27253,-194.92862 194.92864,-194.92862 107.65611,0 194.92863,87.27252 194.92863,194.92862 z" fill="#d30000" id="path194" rx="194.93" ry="194.93"
                 transform="matrix(.76554 0 0 .76554 -168.44 8.6176)"/>
    </g>
</svg>
