<?xml version="1.0" encoding="UTF-8" standalone="no"?>
<svg fill="#28ff09" fill-opacity="14.118" height="480"
     id="canada" version="1.1" width="640" xmlns="http://www.w3.org/2000/svg" xmlns:cc="http://creativecommons.org/ns#"
     xmlns:dc="http://purl.org/dc/elements/1.1/" xmlns:rdf="http://www.w3.org/1999/02/22-rdf-syntax-ns#">
    <metadata id="metadata3365">
        <rdf:RDF>
            <cc:Work rdf:about="">
                <dc:format>image/svg+xml</dc:format>
                <dc:type rdf:resource="http://purl.org/dc/dcmitype/StillImage"/>
            </cc:Work>
        </rdf:RDF>
    </metadata>
    <g fill-opacity="1" fill-rule="evenodd" id="flag" transform="matrix(.86011 0 0 .96762 0 .000014672)">
        <rect fill="#f00" height="166.06" id="rect569" width="744.09" x="0" y="-.000015260"/>
        <rect fill="#fff" height="166.25" id="rect570" width="744.09" x="0" y="166.06"/>
        <rect fill="#0098ff" height="163.75" id="rect571" width="744.09" x="0" y="332.31"/>
    </g>
</svg>
