<?xml version="1.0" encoding="UTF-8" standalone="no"?>
<svg height="480" id="svg554" version="1.1" width="640"
     xmlns="http://www.w3.org/2000/svg" xmlns:cc="http://creativecommons.org/ns#" xmlns:dc="http://purl.org/dc/elements/1.1/" xmlns:rdf="http://www.w3.org/1999/02/22-rdf-syntax-ns#">
    <metadata id="metadata3373">
        <rdf:RDF>
            <cc:Work rdf:about="">
                <dc:format>image/svg+xml</dc:format>
                <dc:type rdf:resource="http://purl.org/dc/dcmitype/StillImage"/>
            </cc:Work>
        </rdf:RDF>
    </metadata>
    <g fill-rule="evenodd" id="flag" transform="matrix(.60207 0 0 .90311 0 .000013347)">
        <rect fill="#fff" height="531.5" id="rect6" width="1063" x="0" y="-.000015"/>
        <rect fill="#ab231d" height="212.6" id="rect561" stroke-width="1pt" width="1063" x="0" y="-.000015260"/>
        <rect fill="#ab231d" height="212.6" id="rect562" stroke-width="1pt" width="1063" x="0" y="318.9"/>
    </g>
</svg>
