<?xml version="1.0" encoding="UTF-8" standalone="no"?>
<svg height="480" id="svg378" version="1" width="640"
     x="0" xmlns="http://www.w3.org/2000/svg" xmlns:cc="http://creativecommons.org/ns#" xmlns:dc="http://purl.org/dc/elements/1.1/" xmlns:rdf="http://www.w3.org/1999/02/22-rdf-syntax-ns#"
     y="0">
    <metadata id="metadata3804">
        <rdf:RDF>
            <cc:Work rdf:about="">
                <dc:format>image/svg+xml</dc:format>
                <dc:type rdf:resource="http://purl.org/dc/dcmitype/StillImage"/>
            </cc:Work>
        </rdf:RDF>
    </metadata>
    <g fill-rule="evenodd" id="flag">
        <rect fill="#2d9c4b" height="480" id="rect149" transform="scale(-1)" width="640" x="-640" y="-480"/>
        <path d="m410.48 91.74c-173.07 49.64-148.41 275.98 13.81 293.26-256.94 49.22-293.5-318.86-13.81-293.26z"
              fill="#fff"
              id="path673"/>
        <rect fill="#b71401" height="60" id="rect695" width="640" x="0" y="0"/>
        <rect fill="#b71401" height="60" id="rect696" width="640" x="0" y="420"/>
        <rect fill="#b71401" height="457.03" id="rect697" width="60" x=".00081519" y="0"/>
        <rect fill="#b71401" height="457.03" id="rect698" width="60" x="580" y="0"/>
    </g>
</svg>
