<?xml version="1.0" encoding="UTF-8" standalone="no"?>
<svg height="480" id="svg378" version="1" width="640"
     x="0" xmlns="http://www.w3.org/2000/svg" xmlns:cc="http://creativecommons.org/ns#" xmlns:dc="http://purl.org/dc/elements/1.1/" xmlns:rdf="http://www.w3.org/1999/02/22-rdf-syntax-ns#"
     y="0">
    <metadata id="metadata3039">
        <rdf:RDF>
            <cc:Work rdf:about="">
                <dc:format>image/svg+xml</dc:format>
                <dc:type rdf:resource="http://purl.org/dc/dcmitype/StillImage"/>
            </cc:Work>
        </rdf:RDF>
    </metadata>
    <g id="flag" transform="matrix(.64508 0 0 .96762 0 .000077450)">
        <g fill-rule="evenodd" id="g2479" stroke-width="1pt" transform="matrix(1.3333 0 0 1 0 -212.6)">
            <rect fill="#fff" height="496.06" id="rect171" width="744.09" x="0" y="212.6"/>
            <rect fill="#36a100" height="496.06" id="rect135" width="248.03" x="496.06" y="212.6"/>
            <rect fill="#36a100" height="496.06" id="rect403" width="248.03" x="0" y="212.6"/>
        </g>
    </g>
</svg>
