<?xml version="1.0" encoding="UTF-8" standalone="no"?>
<svg height="480" id="svg589" version="1.1" width="640"
     xmlns="http://www.w3.org/2000/svg" xmlns:cc="http://creativecommons.org/ns#" xmlns:dc="http://purl.org/dc/elements/1.1/" xmlns:rdf="http://www.w3.org/1999/02/22-rdf-syntax-ns#">
    <metadata id="metadata3065">
        <rdf:RDF>
            <cc:Work rdf:about="">
                <dc:format>image/svg+xml</dc:format>
                <dc:type rdf:resource="http://purl.org/dc/dcmitype/StillImage"/>
            </cc:Work>
        </rdf:RDF>
    </metadata>
    <defs id="defs591">
        <clipPath clipPathUnits="userSpaceOnUse" id="clipPath15333">
            <rect fill-opacity="0.67" height="512" id="rect15335" width="682.67" x="-53.421" y=".0000090621"/>
        </clipPath>
    </defs>
    <g clip-path="url(#clipPath15333)" id="flag" transform="matrix(.9375 0 0 .9375 50.082 -.0000084958)">
        <g fill-rule="evenodd" id="g558" stroke-width="1pt" transform="matrix(2.9257 0 0 2.9257 -745.33 -969.48)">
            <rect fill="#006aa7" height="70" id="rect552" width="87.5" x="213.36" y="331.47"/>
            <rect fill="#006aa7" height="70" id="rect553" width="87.5" x="213.36" y="436.36"/>
            <rect fill="#fecc00" height="35" id="rect554" width="87.5" x="213.36" y="401.43"/>
            <rect fill="#fecc00" height="175" id="rect556" width="35" x="300.5" y="331.37"/>
            <rect fill="#fecc00" height="35" id="rect557" width="157.5" x="334.39" y="401.44"/>
            <rect fill="#006aa7" height="70" id="rect558" width="157.5" x="335.47" y="436.37"/>
            <rect fill="#006aa7" height="70" id="rect559" width="157.5" x="335.47" y="331.47"/>
        </g>
    </g>
</svg>
