<?xml version="1.0" encoding="UTF-8" standalone="no"?>
<svg fill="#28ff09" fill-opacity="14.118" height="480"
     id="canada" version="1.1" width="640" xmlns="http://www.w3.org/2000/svg" xmlns:cc="http://creativecommons.org/ns#"
     xmlns:dc="http://purl.org/dc/elements/1.1/" xmlns:rdf="http://www.w3.org/1999/02/22-rdf-syntax-ns#">
    <metadata id="metadata3128">
        <rdf:RDF>
            <cc:Work rdf:about="">
                <dc:format>image/svg+xml</dc:format>
                <dc:type rdf:resource="http://purl.org/dc/dcmitype/StillImage"/>
            </cc:Work>
        </rdf:RDF>
    </metadata>
    <g fill-opacity="1" fill-rule="evenodd" id="flag" transform="matrix(1.25 0 0 .93750 0 .000019425)">
        <rect fill="#0000cd" height="170.3" id="rect574" width="512" x="0" y="341.7"/>
        <rect fill="#fff" height="170.3" id="rect573" width="512" x="0" y="171.4"/>
        <rect fill="#00cd00" height="171.4" id="rect572" width="512" x="0" y="-.000019656"/>
    </g>
</svg>
