<?xml version="1.0" encoding="UTF-8" standalone="no"?>
<svg height="480" id="svg2" version="1.1" viewBox="0 0 12.8 9.6"
     width="640" xmlns="http://www.w3.org/2000/svg" xmlns:cc="http://creativecommons.org/ns#" xmlns:dc="http://purl.org/dc/elements/1.1/"
     xmlns:rdf="http://www.w3.org/1999/02/22-rdf-syntax-ns#">
    <metadata id="metadata22">
        <rdf:RDF>
            <cc:Work rdf:about="">
                <dc:format>image/svg+xml</dc:format>
                <dc:type rdf:resource="http://purl.org/dc/dcmitype/StillImage"/>
                <dc:title>Flag of South Sudan</dc:title>
            </cc:Work>
        </rdf:RDF>
    </metadata>
    <title id="title4">Flag of South Sudan</title>
    <g id="g3116">
        <rect fill="#078930" height="2.88" id="rect6" width="12.8" x="0" y="6.72"/>
        <rect fill="#fff" height="3.84" id="rect8" width="12.8" x="0" y="2.88"/>
        <rect height="2.88" id="rect10" width="12.8" x="0" y="4.278e-9"/>
        <rect fill="#da121a" height="2.88" id="rect12" width="12.8" x="0" y="3.36"/>
        <polygon fill="#0f47af" id="polygon14" points="0 0 8.6603 5 0 10" transform="scale(.96)"/>
        <polygon fill="#fcdd09"
                 id="polygon16"
                 points="4.1557e5 -3.0193e5 -5.1367e5 0 4.1557e5 3.0193e5 -1.5873e5 -4.8853e5 -1.5873e5 4.8853e5" transform="matrix(.0000029902 0 0 .0000029902 2.7713 4.8)"/>
    </g>
</svg>
