<?xml version="1.0" encoding="UTF-8" standalone="no"?>
<svg height="480" id="svg153" version="1.1" width="640"
     xmlns="http://www.w3.org/2000/svg" xmlns:cc="http://creativecommons.org/ns#" xmlns:dc="http://purl.org/dc/elements/1.1/" xmlns:rdf="http://www.w3.org/1999/02/22-rdf-syntax-ns#">
    <metadata id="metadata88">
        <rdf:RDF>
            <cc:Work rdf:about="">
                <dc:format>image/svg+xml</dc:format>
                <dc:type rdf:resource="http://purl.org/dc/dcmitype/StillImage"/>
            </cc:Work>
        </rdf:RDF>
    </metadata>
    <desc id="desc3">The United States of America flag, produced by Daniel McRae</desc>
    <defs id="defs155">
        <clipPath clipPathUnits="userSpaceOnUse" id="clipPath4819">
            <rect fill-opacity="0.67" height="512" id="rect4821" width="682.67" x="0" y=".0000054613"/>
        </clipPath>
    </defs>
    <g clip-path="url(#clipPath4819)" fill-rule="evenodd" id="flag" transform="matrix(.93750 0 0 .93750 0 -.00000512)">
        <g id="g390" stroke-width="1pt" transform="matrix(3.9385 0 0 3.9385 0 .000005)">
            <g fill="#bd3d44" id="g169">
                <rect height="10" id="rect156" width="247" x="0" y="0"/>
                <rect height="10" id="rect158" width="247" x="0" y="20"/>
                <rect height="10" id="rect160" width="247" x="0" y="40"/>
                <rect height="10" id="rect162" width="247" x="0" y="60"/>
                <rect height="10" id="rect164" width="247" x="0" y="80"/>
                <rect height="10" id="rect166" width="247" x="0" y="100"/>
                <rect height="10" id="rect168" width="247" x="0" y="120"/>
            </g>
            <g fill="#fff" id="g177">
                <rect height="10" id="rect157" width="247" x="0" y="10"/>
                <rect height="10" id="rect159" width="247" x="0" y="30"/>
                <rect height="10" id="rect161" width="247" x="0" y="50"/>
                <rect height="10" id="rect163" width="247" x="0" y="70"/>
                <rect height="10" id="rect165" width="247" x="0" y="90"/>
                <rect height="10" id="rect167" width="247" x="0" y="110"/>
            </g>
        </g>
        <rect fill="#192f5d" height="275.69" id="rect200" stroke-width="1pt" width="389.12" x="0" y="0.000005"/>
        <g fill="#fff" id="g274" transform="matrix(3.9385 0 0 3.9385 0 .000005)">
            <g id="g218">
                <g id="g194">
                    <polygon d="M 1.3084868e-6,-4.0040002 0.89895399,-1.237304 3.8090309,-1.2373029 1.4545381,0.47260808 2.3534912,3.239305 0,1.5293919 l -2.3534933,1.7099115 0.8989552,-2.76669531 -2.353492,-1.70991339 2.9090761,1.3e-6 z" id="polygon207"
                             points="0 -4.004 0.89895 -1.2373 3.808 -1.2373 1.4545 0.47261 2.3535 3.2393 0 1.5294 -2.3535 3.2393 -1.4545 0.47261 -3.808 -1.2373 -0.89895 -1.2373"
                             transform="translate(8.2333 7)"/>
                    <polygon d="M 1.3084868e-6,-4.0040002 0.89895399,-1.237304 3.8090309,-1.2373029 1.4545381,0.47260808 2.3534912,3.239305 0,1.5293919 l -2.3534933,1.7099115 0.8989552,-2.76669531 -2.353492,-1.70991339 2.9090761,1.3e-6 z" id="polygon188"
                             points="0 -4.004 0.89895 -1.2373 3.808 -1.2373 1.4545 0.47261 2.3535 3.2393 0 1.5294 -2.3535 3.2393 -1.4545 0.47261 -3.808 -1.2373 -0.89895 -1.2373"
                             transform="translate(24.7,7)"/>
                    <polygon d="M 1.3084868e-6,-4.0040002 0.89895399,-1.237304 3.8090309,-1.2373029 1.4545381,0.47260808 2.3534912,3.239305 0,1.5293919 l -2.3534933,1.7099115 0.8989552,-2.76669531 -2.353492,-1.70991339 2.9090761,1.3e-6 z" id="polygon189"
                             points="0 -4.004 0.89895 -1.2373 3.808 -1.2373 1.4545 0.47261 2.3535 3.2393 0 1.5294 -2.3535 3.2393 -1.4545 0.47261 -3.808 -1.2373 -0.89895 -1.2373"
                             transform="translate(41.167 7)"/>
                    <polygon d="M 1.3084868e-6,-4.0040002 0.89895399,-1.237304 3.8090309,-1.2373029 1.4545381,0.47260808 2.3534912,3.239305 0,1.5293919 l -2.3534933,1.7099115 0.8989552,-2.76669531 -2.353492,-1.70991339 2.9090761,1.3e-6 z" id="polygon190"
                             points="0 -4.004 0.89895 -1.2373 3.808 -1.2373 1.4545 0.47261 2.3535 3.2393 0 1.5294 -2.3535 3.2393 -1.4545 0.47261 -3.808 -1.2373 -0.89895 -1.2373"
                             transform="translate(57.633 7)"/>
                    <polygon d="M 1.3084868e-6,-4.0040002 0.89895399,-1.237304 3.8090309,-1.2373029 1.4545381,0.47260808 2.3534912,3.239305 0,1.5293919 l -2.3534933,1.7099115 0.8989552,-2.76669531 -2.353492,-1.70991339 2.9090761,1.3e-6 z" id="polygon191"
                             points="0 -4.004 0.89895 -1.2373 3.808 -1.2373 1.4545 0.47261 2.3535 3.2393 0 1.5294 -2.3535 3.2393 -1.4545 0.47261 -3.808 -1.2373 -0.89895 -1.2373"
                             transform="translate(74.1,7)"/>
                    <polygon d="M 1.3084868e-6,-4.0040002 0.89895399,-1.237304 3.8090309,-1.2373029 1.4545381,0.47260808 2.3534912,3.239305 0,1.5293919 l -2.3534933,1.7099115 0.8989552,-2.76669531 -2.353492,-1.70991339 2.9090761,1.3e-6 z" id="polygon192"
                             points="0 -4.004 0.89895 -1.2373 3.808 -1.2373 1.4545 0.47261 2.3535 3.2393 0 1.5294 -2.3535 3.2393 -1.4545 0.47261 -3.808 -1.2373 -0.89895 -1.2373"
                             transform="translate(90.567 7)"/>
                </g>
                <g id="g205">
                    <polygon d="M 1.3084868e-6,-4.0040002 0.89895399,-1.237304 3.8090309,-1.2373029 1.4545381,0.47260808 2.3534912,3.239305 0,1.5293919 l -2.3534933,1.7099115 0.8989552,-2.76669531 -2.353492,-1.70991339 2.9090761,1.3e-6 z" id="polygon193"
                             points="0 -4.004 0.89895 -1.2373 3.808 -1.2373 1.4545 0.47261 2.3535 3.2393 0 1.5294 -2.3535 3.2393 -1.4545 0.47261 -3.808 -1.2373 -0.89895 -1.2373"
                             transform="translate(16.467 14)"/>
                    <polygon d="M 1.3084868e-6,-4.0040002 0.89895399,-1.237304 3.8090309,-1.2373029 1.4545381,0.47260808 2.3534912,3.239305 0,1.5293919 l -2.3534933,1.7099115 0.8989552,-2.76669531 -2.353492,-1.70991339 2.9090761,1.3e-6 z" id="polygon201"
                             points="0 -4.004 0.89895 -1.2373 3.808 -1.2373 1.4545 0.47261 2.3535 3.2393 0 1.5294 -2.3535 3.2393 -1.4545 0.47261 -3.808 -1.2373 -0.89895 -1.2373"
                             transform="translate(32.933 14)"/>
                    <polygon d="M 1.3084868e-6,-4.0040002 0.89895399,-1.237304 3.8090309,-1.2373029 1.4545381,0.47260808 2.3534912,3.239305 0,1.5293919 l -2.3534933,1.7099115 0.8989552,-2.76669531 -2.353492,-1.70991339 2.9090761,1.3e-6 z" id="polygon202"
                             points="0 -4.004 0.89895 -1.2373 3.808 -1.2373 1.4545 0.47261 2.3535 3.2393 0 1.5294 -2.3535 3.2393 -1.4545 0.47261 -3.808 -1.2373 -0.89895 -1.2373"
                             transform="translate(49.4,14)"/>
                    <polygon d="M 1.3084868e-6,-4.0040002 0.89895399,-1.237304 3.8090309,-1.2373029 1.4545381,0.47260808 2.3534912,3.239305 0,1.5293919 l -2.3534933,1.7099115 0.8989552,-2.76669531 -2.353492,-1.70991339 2.9090761,1.3e-6 z" id="polygon203"
                             points="0 -4.004 0.89895 -1.2373 3.808 -1.2373 1.4545 0.47261 2.3535 3.2393 0 1.5294 -2.3535 3.2393 -1.4545 0.47261 -3.808 -1.2373 -0.89895 -1.2373"
                             transform="translate(65.867 14)"/>
                    <polygon d="M 1.3084868e-6,-4.0040002 0.89895399,-1.237304 3.8090309,-1.2373029 1.4545381,0.47260808 2.3534912,3.239305 0,1.5293919 l -2.3534933,1.7099115 0.8989552,-2.76669531 -2.353492,-1.70991339 2.9090761,1.3e-6 z" id="polygon204"
                             points="0 -4.004 0.89895 -1.2373 3.808 -1.2373 1.4545 0.47261 2.3535 3.2393 0 1.5294 -2.3535 3.2393 -1.4545 0.47261 -3.808 -1.2373 -0.89895 -1.2373"
                             transform="translate(82.333 14)"/>
                </g>
            </g>
            <g id="g232" transform="translate(0,14)">
                <g id="g233">
                    <polygon d="M 1.3084868e-6,-4.0040002 0.89895399,-1.237304 3.8090309,-1.2373029 1.4545381,0.47260808 2.3534912,3.239305 0,1.5293919 l -2.3534933,1.7099115 0.8989552,-2.76669531 -2.353492,-1.70991339 2.9090761,1.3e-6 z" id="polygon234"
                             points="0 -4.004 0.89895 -1.2373 3.808 -1.2373 1.4545 0.47261 2.3535 3.2393 0 1.5294 -2.3535 3.2393 -1.4545 0.47261 -3.808 -1.2373 -0.89895 -1.2373"
                             transform="translate(8.2333 7)"/>
                    <polygon d="M 1.3084868e-6,-4.0040002 0.89895399,-1.237304 3.8090309,-1.2373029 1.4545381,0.47260808 2.3534912,3.239305 0,1.5293919 l -2.3534933,1.7099115 0.8989552,-2.76669531 -2.353492,-1.70991339 2.9090761,1.3e-6 z" id="polygon235"
                             points="0 -4.004 0.89895 -1.2373 3.808 -1.2373 1.4545 0.47261 2.3535 3.2393 0 1.5294 -2.3535 3.2393 -1.4545 0.47261 -3.808 -1.2373 -0.89895 -1.2373"
                             transform="translate(24.7,7)"/>
                    <polygon d="M 1.3084868e-6,-4.0040002 0.89895399,-1.237304 3.8090309,-1.2373029 1.4545381,0.47260808 2.3534912,3.239305 0,1.5293919 l -2.3534933,1.7099115 0.8989552,-2.76669531 -2.353492,-1.70991339 2.9090761,1.3e-6 z" id="polygon236"
                             points="0 -4.004 0.89895 -1.2373 3.808 -1.2373 1.4545 0.47261 2.3535 3.2393 0 1.5294 -2.3535 3.2393 -1.4545 0.47261 -3.808 -1.2373 -0.89895 -1.2373"
                             transform="translate(41.167 7)"/>
                    <polygon d="M 1.3084868e-6,-4.0040002 0.89895399,-1.237304 3.8090309,-1.2373029 1.4545381,0.47260808 2.3534912,3.239305 0,1.5293919 l -2.3534933,1.7099115 0.8989552,-2.76669531 -2.353492,-1.70991339 2.9090761,1.3e-6 z" id="polygon237"
                             points="0 -4.004 0.89895 -1.2373 3.808 -1.2373 1.4545 0.47261 2.3535 3.2393 0 1.5294 -2.3535 3.2393 -1.4545 0.47261 -3.808 -1.2373 -0.89895 -1.2373"
                             transform="translate(57.633 7)"/>
                    <polygon d="M 1.3084868e-6,-4.0040002 0.89895399,-1.237304 3.8090309,-1.2373029 1.4545381,0.47260808 2.3534912,3.239305 0,1.5293919 l -2.3534933,1.7099115 0.8989552,-2.76669531 -2.353492,-1.70991339 2.9090761,1.3e-6 z" id="polygon238"
                             points="0 -4.004 0.89895 -1.2373 3.808 -1.2373 1.4545 0.47261 2.3535 3.2393 0 1.5294 -2.3535 3.2393 -1.4545 0.47261 -3.808 -1.2373 -0.89895 -1.2373"
                             transform="translate(74.1,7)"/>
                    <polygon d="M 1.3084868e-6,-4.0040002 0.89895399,-1.237304 3.8090309,-1.2373029 1.4545381,0.47260808 2.3534912,3.239305 0,1.5293919 l -2.3534933,1.7099115 0.8989552,-2.76669531 -2.353492,-1.70991339 2.9090761,1.3e-6 z" id="polygon239"
                             points="0 -4.004 0.89895 -1.2373 3.808 -1.2373 1.4545 0.47261 2.3535 3.2393 0 1.5294 -2.3535 3.2393 -1.4545 0.47261 -3.808 -1.2373 -0.89895 -1.2373"
                             transform="translate(90.567 7)"/>
                </g>
                <g id="g240">
                    <polygon d="M 1.3084868e-6,-4.0040002 0.89895399,-1.237304 3.8090309,-1.2373029 1.4545381,0.47260808 2.3534912,3.239305 0,1.5293919 l -2.3534933,1.7099115 0.8989552,-2.76669531 -2.353492,-1.70991339 2.9090761,1.3e-6 z" id="polygon241"
                             points="0 -4.004 0.89895 -1.2373 3.808 -1.2373 1.4545 0.47261 2.3535 3.2393 0 1.5294 -2.3535 3.2393 -1.4545 0.47261 -3.808 -1.2373 -0.89895 -1.2373"
                             transform="translate(16.467 14)"/>
                    <polygon d="M 1.3084868e-6,-4.0040002 0.89895399,-1.237304 3.8090309,-1.2373029 1.4545381,0.47260808 2.3534912,3.239305 0,1.5293919 l -2.3534933,1.7099115 0.8989552,-2.76669531 -2.353492,-1.70991339 2.9090761,1.3e-6 z" id="polygon242"
                             points="0 -4.004 0.89895 -1.2373 3.808 -1.2373 1.4545 0.47261 2.3535 3.2393 0 1.5294 -2.3535 3.2393 -1.4545 0.47261 -3.808 -1.2373 -0.89895 -1.2373"
                             transform="translate(32.933 14)"/>
                    <polygon d="M 1.3084868e-6,-4.0040002 0.89895399,-1.237304 3.8090309,-1.2373029 1.4545381,0.47260808 2.3534912,3.239305 0,1.5293919 l -2.3534933,1.7099115 0.8989552,-2.76669531 -2.353492,-1.70991339 2.9090761,1.3e-6 z" id="polygon243"
                             points="0 -4.004 0.89895 -1.2373 3.808 -1.2373 1.4545 0.47261 2.3535 3.2393 0 1.5294 -2.3535 3.2393 -1.4545 0.47261 -3.808 -1.2373 -0.89895 -1.2373"
                             transform="translate(49.4,14)"/>
                    <polygon d="M 1.3084868e-6,-4.0040002 0.89895399,-1.237304 3.8090309,-1.2373029 1.4545381,0.47260808 2.3534912,3.239305 0,1.5293919 l -2.3534933,1.7099115 0.8989552,-2.76669531 -2.353492,-1.70991339 2.9090761,1.3e-6 z" id="polygon244"
                             points="0 -4.004 0.89895 -1.2373 3.808 -1.2373 1.4545 0.47261 2.3535 3.2393 0 1.5294 -2.3535 3.2393 -1.4545 0.47261 -3.808 -1.2373 -0.89895 -1.2373"
                             transform="translate(65.867 14)"/>
                    <polygon d="M 1.3084868e-6,-4.0040002 0.89895399,-1.237304 3.8090309,-1.2373029 1.4545381,0.47260808 2.3534912,3.239305 0,1.5293919 l -2.3534933,1.7099115 0.8989552,-2.76669531 -2.353492,-1.70991339 2.9090761,1.3e-6 z" id="polygon245"
                             points="0 -4.004 0.89895 -1.2373 3.808 -1.2373 1.4545 0.47261 2.3535 3.2393 0 1.5294 -2.3535 3.2393 -1.4545 0.47261 -3.808 -1.2373 -0.89895 -1.2373"
                             transform="translate(82.333 14)"/>
                </g>
            </g>
            <g id="g246" transform="translate(0,28)">
                <g id="g247">
                    <polygon d="M 1.3084868e-6,-4.0040002 0.89895399,-1.237304 3.8090309,-1.2373029 1.4545381,0.47260808 2.3534912,3.239305 0,1.5293919 l -2.3534933,1.7099115 0.8989552,-2.76669531 -2.353492,-1.70991339 2.9090761,1.3e-6 z" id="polygon248"
                             points="0 -4.004 0.89895 -1.2373 3.808 -1.2373 1.4545 0.47261 2.3535 3.2393 0 1.5294 -2.3535 3.2393 -1.4545 0.47261 -3.808 -1.2373 -0.89895 -1.2373"
                             transform="translate(8.2333 7)"/>
                    <polygon d="M 1.3084868e-6,-4.0040002 0.89895399,-1.237304 3.8090309,-1.2373029 1.4545381,0.47260808 2.3534912,3.239305 0,1.5293919 l -2.3534933,1.7099115 0.8989552,-2.76669531 -2.353492,-1.70991339 2.9090761,1.3e-6 z" id="polygon249"
                             points="0 -4.004 0.89895 -1.2373 3.808 -1.2373 1.4545 0.47261 2.3535 3.2393 0 1.5294 -2.3535 3.2393 -1.4545 0.47261 -3.808 -1.2373 -0.89895 -1.2373"
                             transform="translate(24.7,7)"/>
                    <polygon d="M 1.3084868e-6,-4.0040002 0.89895399,-1.237304 3.8090309,-1.2373029 1.4545381,0.47260808 2.3534912,3.239305 0,1.5293919 l -2.3534933,1.7099115 0.8989552,-2.76669531 -2.353492,-1.70991339 2.9090761,1.3e-6 z" id="polygon250"
                             points="0 -4.004 0.89895 -1.2373 3.808 -1.2373 1.4545 0.47261 2.3535 3.2393 0 1.5294 -2.3535 3.2393 -1.4545 0.47261 -3.808 -1.2373 -0.89895 -1.2373"
                             transform="translate(41.167 7)"/>
                    <polygon d="M 1.3084868e-6,-4.0040002 0.89895399,-1.237304 3.8090309,-1.2373029 1.4545381,0.47260808 2.3534912,3.239305 0,1.5293919 l -2.3534933,1.7099115 0.8989552,-2.76669531 -2.353492,-1.70991339 2.9090761,1.3e-6 z" id="polygon251"
                             points="0 -4.004 0.89895 -1.2373 3.808 -1.2373 1.4545 0.47261 2.3535 3.2393 0 1.5294 -2.3535 3.2393 -1.4545 0.47261 -3.808 -1.2373 -0.89895 -1.2373"
                             transform="translate(57.633 7)"/>
                    <polygon d="M 1.3084868e-6,-4.0040002 0.89895399,-1.237304 3.8090309,-1.2373029 1.4545381,0.47260808 2.3534912,3.239305 0,1.5293919 l -2.3534933,1.7099115 0.8989552,-2.76669531 -2.353492,-1.70991339 2.9090761,1.3e-6 z" id="polygon252"
                             points="0 -4.004 0.89895 -1.2373 3.808 -1.2373 1.4545 0.47261 2.3535 3.2393 0 1.5294 -2.3535 3.2393 -1.4545 0.47261 -3.808 -1.2373 -0.89895 -1.2373"
                             transform="translate(74.1,7)"/>
                    <polygon d="M 1.3084868e-6,-4.0040002 0.89895399,-1.237304 3.8090309,-1.2373029 1.4545381,0.47260808 2.3534912,3.239305 0,1.5293919 l -2.3534933,1.7099115 0.8989552,-2.76669531 -2.353492,-1.70991339 2.9090761,1.3e-6 z" id="polygon253"
                             points="0 -4.004 0.89895 -1.2373 3.808 -1.2373 1.4545 0.47261 2.3535 3.2393 0 1.5294 -2.3535 3.2393 -1.4545 0.47261 -3.808 -1.2373 -0.89895 -1.2373"
                             transform="translate(90.567 7)"/>
                </g>
                <g id="g254">
                    <polygon d="M 1.3084868e-6,-4.0040002 0.89895399,-1.237304 3.8090309,-1.2373029 1.4545381,0.47260808 2.3534912,3.239305 0,1.5293919 l -2.3534933,1.7099115 0.8989552,-2.76669531 -2.353492,-1.70991339 2.9090761,1.3e-6 z" id="polygon255"
                             points="0 -4.004 0.89895 -1.2373 3.808 -1.2373 1.4545 0.47261 2.3535 3.2393 0 1.5294 -2.3535 3.2393 -1.4545 0.47261 -3.808 -1.2373 -0.89895 -1.2373"
                             transform="translate(16.467 14)"/>
                    <polygon d="M 1.3084868e-6,-4.0040002 0.89895399,-1.237304 3.8090309,-1.2373029 1.4545381,0.47260808 2.3534912,3.239305 0,1.5293919 l -2.3534933,1.7099115 0.8989552,-2.76669531 -2.353492,-1.70991339 2.9090761,1.3e-6 z" id="polygon256"
                             points="0 -4.004 0.89895 -1.2373 3.808 -1.2373 1.4545 0.47261 2.3535 3.2393 0 1.5294 -2.3535 3.2393 -1.4545 0.47261 -3.808 -1.2373 -0.89895 -1.2373"
                             transform="translate(32.933 14)"/>
                    <polygon d="M 1.3084868e-6,-4.0040002 0.89895399,-1.237304 3.8090309,-1.2373029 1.4545381,0.47260808 2.3534912,3.239305 0,1.5293919 l -2.3534933,1.7099115 0.8989552,-2.76669531 -2.353492,-1.70991339 2.9090761,1.3e-6 z" id="polygon257"
                             points="0 -4.004 0.89895 -1.2373 3.808 -1.2373 1.4545 0.47261 2.3535 3.2393 0 1.5294 -2.3535 3.2393 -1.4545 0.47261 -3.808 -1.2373 -0.89895 -1.2373"
                             transform="translate(49.4,14)"/>
                    <polygon d="M 1.3084868e-6,-4.0040002 0.89895399,-1.237304 3.8090309,-1.2373029 1.4545381,0.47260808 2.3534912,3.239305 0,1.5293919 l -2.3534933,1.7099115 0.8989552,-2.76669531 -2.353492,-1.70991339 2.9090761,1.3e-6 z" id="polygon258"
                             points="0 -4.004 0.89895 -1.2373 3.808 -1.2373 1.4545 0.47261 2.3535 3.2393 0 1.5294 -2.3535 3.2393 -1.4545 0.47261 -3.808 -1.2373 -0.89895 -1.2373"
                             transform="translate(65.867 14)"/>
                    <polygon d="M 1.3084868e-6,-4.0040002 0.89895399,-1.237304 3.8090309,-1.2373029 1.4545381,0.47260808 2.3534912,3.239305 0,1.5293919 l -2.3534933,1.7099115 0.8989552,-2.76669531 -2.353492,-1.70991339 2.9090761,1.3e-6 z" id="polygon259"
                             points="0 -4.004 0.89895 -1.2373 3.808 -1.2373 1.4545 0.47261 2.3535 3.2393 0 1.5294 -2.3535 3.2393 -1.4545 0.47261 -3.808 -1.2373 -0.89895 -1.2373"
                             transform="translate(82.333 14)"/>
                </g>
            </g>
            <g id="g260" transform="translate(0,42)">
                <g id="g261">
                    <polygon d="M 1.3084868e-6,-4.0040002 0.89895399,-1.237304 3.8090309,-1.2373029 1.4545381,0.47260808 2.3534912,3.239305 0,1.5293919 l -2.3534933,1.7099115 0.8989552,-2.76669531 -2.353492,-1.70991339 2.9090761,1.3e-6 z" id="polygon262"
                             points="0 -4.004 0.89895 -1.2373 3.808 -1.2373 1.4545 0.47261 2.3535 3.2393 0 1.5294 -2.3535 3.2393 -1.4545 0.47261 -3.808 -1.2373 -0.89895 -1.2373"
                             transform="translate(8.2333 7)"/>
                    <polygon d="M 1.3084868e-6,-4.0040002 0.89895399,-1.237304 3.8090309,-1.2373029 1.4545381,0.47260808 2.3534912,3.239305 0,1.5293919 l -2.3534933,1.7099115 0.8989552,-2.76669531 -2.353492,-1.70991339 2.9090761,1.3e-6 z" id="polygon263"
                             points="0 -4.004 0.89895 -1.2373 3.808 -1.2373 1.4545 0.47261 2.3535 3.2393 0 1.5294 -2.3535 3.2393 -1.4545 0.47261 -3.808 -1.2373 -0.89895 -1.2373"
                             transform="translate(24.7,7)"/>
                    <polygon d="M 1.3084868e-6,-4.0040002 0.89895399,-1.237304 3.8090309,-1.2373029 1.4545381,0.47260808 2.3534912,3.239305 0,1.5293919 l -2.3534933,1.7099115 0.8989552,-2.76669531 -2.353492,-1.70991339 2.9090761,1.3e-6 z" id="polygon264"
                             points="0 -4.004 0.89895 -1.2373 3.808 -1.2373 1.4545 0.47261 2.3535 3.2393 0 1.5294 -2.3535 3.2393 -1.4545 0.47261 -3.808 -1.2373 -0.89895 -1.2373"
                             transform="translate(41.167 7)"/>
                    <polygon d="M 1.3084868e-6,-4.0040002 0.89895399,-1.237304 3.8090309,-1.2373029 1.4545381,0.47260808 2.3534912,3.239305 0,1.5293919 l -2.3534933,1.7099115 0.8989552,-2.76669531 -2.353492,-1.70991339 2.9090761,1.3e-6 z" id="polygon265"
                             points="0 -4.004 0.89895 -1.2373 3.808 -1.2373 1.4545 0.47261 2.3535 3.2393 0 1.5294 -2.3535 3.2393 -1.4545 0.47261 -3.808 -1.2373 -0.89895 -1.2373"
                             transform="translate(57.633 7)"/>
                    <polygon d="M 1.3084868e-6,-4.0040002 0.89895399,-1.237304 3.8090309,-1.2373029 1.4545381,0.47260808 2.3534912,3.239305 0,1.5293919 l -2.3534933,1.7099115 0.8989552,-2.76669531 -2.353492,-1.70991339 2.9090761,1.3e-6 z" id="polygon266"
                             points="0 -4.004 0.89895 -1.2373 3.808 -1.2373 1.4545 0.47261 2.3535 3.2393 0 1.5294 -2.3535 3.2393 -1.4545 0.47261 -3.808 -1.2373 -0.89895 -1.2373"
                             transform="translate(74.1,7)"/>
                    <polygon d="M 1.3084868e-6,-4.0040002 0.89895399,-1.237304 3.8090309,-1.2373029 1.4545381,0.47260808 2.3534912,3.239305 0,1.5293919 l -2.3534933,1.7099115 0.8989552,-2.76669531 -2.353492,-1.70991339 2.9090761,1.3e-6 z" id="polygon267"
                             points="0 -4.004 0.89895 -1.2373 3.808 -1.2373 1.4545 0.47261 2.3535 3.2393 0 1.5294 -2.3535 3.2393 -1.4545 0.47261 -3.808 -1.2373 -0.89895 -1.2373"
                             transform="translate(90.567 7)"/>
                </g>
                <g id="g268">
                    <polygon d="M 1.3084868e-6,-4.0040002 0.89895399,-1.237304 3.8090309,-1.2373029 1.4545381,0.47260808 2.3534912,3.239305 0,1.5293919 l -2.3534933,1.7099115 0.8989552,-2.76669531 -2.353492,-1.70991339 2.9090761,1.3e-6 z" id="polygon269"
                             points="0 -4.004 0.89895 -1.2373 3.808 -1.2373 1.4545 0.47261 2.3535 3.2393 0 1.5294 -2.3535 3.2393 -1.4545 0.47261 -3.808 -1.2373 -0.89895 -1.2373"
                             transform="translate(16.467 14)"/>
                    <polygon d="M 1.3084868e-6,-4.0040002 0.89895399,-1.237304 3.8090309,-1.2373029 1.4545381,0.47260808 2.3534912,3.239305 0,1.5293919 l -2.3534933,1.7099115 0.8989552,-2.76669531 -2.353492,-1.70991339 2.9090761,1.3e-6 z" id="polygon270"
                             points="0 -4.004 0.89895 -1.2373 3.808 -1.2373 1.4545 0.47261 2.3535 3.2393 0 1.5294 -2.3535 3.2393 -1.4545 0.47261 -3.808 -1.2373 -0.89895 -1.2373"
                             transform="translate(32.933 14)"/>
                    <polygon d="M 1.3084868e-6,-4.0040002 0.89895399,-1.237304 3.8090309,-1.2373029 1.4545381,0.47260808 2.3534912,3.239305 0,1.5293919 l -2.3534933,1.7099115 0.8989552,-2.76669531 -2.353492,-1.70991339 2.9090761,1.3e-6 z" id="polygon271"
                             points="0 -4.004 0.89895 -1.2373 3.808 -1.2373 1.4545 0.47261 2.3535 3.2393 0 1.5294 -2.3535 3.2393 -1.4545 0.47261 -3.808 -1.2373 -0.89895 -1.2373"
                             transform="translate(49.4,14)"/>
                    <polygon d="M 1.3084868e-6,-4.0040002 0.89895399,-1.237304 3.8090309,-1.2373029 1.4545381,0.47260808 2.3534912,3.239305 0,1.5293919 l -2.3534933,1.7099115 0.8989552,-2.76669531 -2.353492,-1.70991339 2.9090761,1.3e-6 z" id="polygon272"
                             points="0 -4.004 0.89895 -1.2373 3.808 -1.2373 1.4545 0.47261 2.3535 3.2393 0 1.5294 -2.3535 3.2393 -1.4545 0.47261 -3.808 -1.2373 -0.89895 -1.2373"
                             transform="translate(65.867 14)"/>
                    <polygon d="M 1.3084868e-6,-4.0040002 0.89895399,-1.237304 3.8090309,-1.2373029 1.4545381,0.47260808 2.3534912,3.239305 0,1.5293919 l -2.3534933,1.7099115 0.8989552,-2.76669531 -2.353492,-1.70991339 2.9090761,1.3e-6 z" id="polygon273"
                             points="0 -4.004 0.89895 -1.2373 3.808 -1.2373 1.4545 0.47261 2.3535 3.2393 0 1.5294 -2.3535 3.2393 -1.4545 0.47261 -3.808 -1.2373 -0.89895 -1.2373"
                             transform="translate(82.333 14)"/>
                </g>
            </g>
            <g id="g211" transform="translate(0,56)">
                <polygon d="M 1.3084868e-6,-4.0040002 0.89895399,-1.237304 3.8090309,-1.2373029 1.4545381,0.47260808 2.3534912,3.239305 0,1.5293919 l -2.3534933,1.7099115 0.8989552,-2.76669531 -2.353492,-1.70991339 2.9090761,1.3e-6 z" id="polygon212"
                         points="0 -4.004 0.89895 -1.2373 3.808 -1.2373 1.4545 0.47261 2.3535 3.2393 0 1.5294 -2.3535 3.2393 -1.4545 0.47261 -3.808 -1.2373 -0.89895 -1.2373"
                         transform="translate(8.2333 7)"/>
                <polygon d="M 1.3084868e-6,-4.0040002 0.89895399,-1.237304 3.8090309,-1.2373029 1.4545381,0.47260808 2.3534912,3.239305 0,1.5293919 l -2.3534933,1.7099115 0.8989552,-2.76669531 -2.353492,-1.70991339 2.9090761,1.3e-6 z" id="polygon213"
                         points="0 -4.004 0.89895 -1.2373 3.808 -1.2373 1.4545 0.47261 2.3535 3.2393 0 1.5294 -2.3535 3.2393 -1.4545 0.47261 -3.808 -1.2373 -0.89895 -1.2373"
                         transform="translate(24.7,7)"/>
                <polygon d="M 1.3084868e-6,-4.0040002 0.89895399,-1.237304 3.8090309,-1.2373029 1.4545381,0.47260808 2.3534912,3.239305 0,1.5293919 l -2.3534933,1.7099115 0.8989552,-2.76669531 -2.353492,-1.70991339 2.9090761,1.3e-6 z" id="polygon214"
                         points="0 -4.004 0.89895 -1.2373 3.808 -1.2373 1.4545 0.47261 2.3535 3.2393 0 1.5294 -2.3535 3.2393 -1.4545 0.47261 -3.808 -1.2373 -0.89895 -1.2373"
                         transform="translate(41.167 7)"/>
                <polygon d="M 1.3084868e-6,-4.0040002 0.89895399,-1.237304 3.8090309,-1.2373029 1.4545381,0.47260808 2.3534912,3.239305 0,1.5293919 l -2.3534933,1.7099115 0.8989552,-2.76669531 -2.353492,-1.70991339 2.9090761,1.3e-6 z" id="polygon215"
                         points="0 -4.004 0.89895 -1.2373 3.808 -1.2373 1.4545 0.47261 2.3535 3.2393 0 1.5294 -2.3535 3.2393 -1.4545 0.47261 -3.808 -1.2373 -0.89895 -1.2373"
                         transform="translate(57.633 7)"/>
                <polygon d="M 1.3084868e-6,-4.0040002 0.89895399,-1.237304 3.8090309,-1.2373029 1.4545381,0.47260808 2.3534912,3.239305 0,1.5293919 l -2.3534933,1.7099115 0.8989552,-2.76669531 -2.353492,-1.70991339 2.9090761,1.3e-6 z" id="polygon216"
                         points="0 -4.004 0.89895 -1.2373 3.808 -1.2373 1.4545 0.47261 2.3535 3.2393 0 1.5294 -2.3535 3.2393 -1.4545 0.47261 -3.808 -1.2373 -0.89895 -1.2373"
                         transform="translate(74.1,7)"/>
                <polygon d="M 1.3084868e-6,-4.0040002 0.89895399,-1.237304 3.8090309,-1.2373029 1.4545381,0.47260808 2.3534912,3.239305 0,1.5293919 l -2.3534933,1.7099115 0.8989552,-2.76669531 -2.353492,-1.70991339 2.9090761,1.3e-6 z" id="polygon217"
                         points="0 -4.004 0.89895 -1.2373 3.808 -1.2373 1.4545 0.47261 2.3535 3.2393 0 1.5294 -2.3535 3.2393 -1.4545 0.47261 -3.808 -1.2373 -0.89895 -1.2373"
                         transform="translate(90.567 7)"/>
            </g>
        </g>
    </g>
</svg>
