<?xml version="1.0" encoding="UTF-8"?>
<svg height="22px" version="1.1" viewBox="0 0 20 22" width="20px" xmlns="http://www.w3.org/2000/svg"
>
    <title>angular</title>
    <g fill="none" fill-rule="evenodd" id="⚙️-Symbols" stroke="none" stroke-width="1">
        <g fill="#DD0031" fill-rule="nonzero" id="29)-Table/Table-Dark" transform="translate(-30.000000, -52.000000)">
            <g id="Table-Dark" transform="translate(-1.000000, 0.000000)">
                <g id="Table-Row" transform="translate(1.000000, 38.000000)">
                    <g id="angular" transform="translate(30.000000, 14.000000)">
                        <path d="M8.16647529,11.3510527 L11.8334778,11.3510527 L10,6.94716733 L8.16647529,11.3510527 L8.16647529,11.3510527 Z M10,0 L0,3.57699214 L1.53033534,16.8316785 L10,21.5384615 L18.4696178,16.8316785 L20,3.57699214 L10,0 Z M16.2656949,16.4327939 L13.9267921,16.4327939 L12.6660418,13.2884926 L7.34356619,13.2884926 L6.08267523,16.4327939 L3.73913247,16.4327939 L10,2.37982306 L16.2656949,16.4327939 Z"
                              id="Shape"></path>
                    </g>
                </g>
            </g>
        </g>
    </g>
</svg>
