<?xml version="1.0" encoding="UTF-8"?>
<svg height="20px" version="1.1" viewBox="0 0 20 20" width="20px" xmlns="http://www.w3.org/2000/svg"
>
    <title>star</title>
    <g fill="none" fill-rule="evenodd" id="🖥-Layout-+-Dashboard" stroke="none" stroke-width="1">
        <g id="Vertical-eCommerce" transform="translate(-322.000000, -945.000000)">
            <g id="Dashboard" transform="translate(287.000000, 105.000000)">
                <g id="Ecommerce-Table" transform="translate(1.000000, 600.000000)">
                    <g id="Table-Row" transform="translate(0.000000, 219.000000)">
                        <g id="Product" transform="translate(27.000000, 11.068966)">
                            <g id="star" transform="translate(7.000000, 9.931034)">
                                <g fill="#231F20" fill-rule="nonzero" id="Group" opacity="0.2"
                                   transform="translate(0.000000, 1.000000)">
                                    <g id="Path">
                                        <path d="M19.9390476,7.26659524 C19.7914286,6.83638095 19.3995238,6.52242857 18.9290476,6.45683333 L13.5352381,5.71266667 L11.122381,1.06988095 C10.9109524,0.663190476 10.4766667,0.406238095 10,0.406238095 C9.52333333,0.406238095 9.08904762,0.663190476 8.87761905,1.06988095 L6.46619048,5.71266667 L1.07142857,6.45683333 C0.59952381,6.52242857 0.208095238,6.83592857 0.0614285714,7.26659524 C-0.0861904762,7.69680952 0.0361904762,8.16909524 0.378095238,8.48530952 L4.28142857,12.0998333 L3.36047619,17.2040476 C3.28047619,17.6500952 3.47333333,18.1006667 3.85857143,18.3666667 C4.0752381,18.5177619 4.33285714,18.5937619 4.59333333,18.5937619 C4.79238095,18.5937619 4.99238095,18.5485238 5.1752381,18.4571429 L10,16.0473095 L14.8247619,18.4571429 C15.007619,18.5485238 15.207619,18.5937619 15.4066667,18.5937619 C15.6657143,18.5937619 15.9247619,18.5177619 16.142381,18.3666667 C16.527619,18.1002143 16.7204762,17.6496429 16.6404762,17.2040476 L15.7190476,12.099381 L19.622381,8.48485714 C19.9628571,8.17 20.0857143,7.69680952 19.9390476,7.26659524 Z"></path>
                                    </g>
                                </g>
                                <path d="M19.939053,6.78962292 C19.7914352,6.36384439 19.3995338,6.05312904 18.9290616,5.98821013 L13.5352982,5.25171625 L11.1224617,0.656800318 C10.911035,0.254303054 10.476753,0 10.0000904,0 C9.52342778,0 9.08914578,0.254303054 8.87771902,0.656800318 L6.46631107,5.25171625 L1.0715953,5.98821013 C0.599694578,6.05312904 0.208269354,6.36339668 0.0616039417,6.78962292 C-0.0860138434,7.21540145 0.0363660623,7.68281763 0.3782679,7.99577157 L4.28156785,11.5730276 L3.36062335,16.6246145 C3.28062403,17.0660631 3.47347952,17.5119889 3.85871433,17.7752462 C4.07537914,17.9247836 4.33299598,18 4.59346995,18 C4.79251586,18 4.99251415,17.9552283 5.17536973,17.8647896 L10.0000904,15.479803 L14.824811,17.8647896 C15.0076666,17.9552283 15.2076649,18 15.4067108,18 C15.6657562,18 15.9248016,17.9247836 16.1424188,17.7752462 C16.5276536,17.5115411 16.7205091,17.0656154 16.6405098,16.6246145 L15.7190891,11.5725798 L19.622389,7.99532385 C19.9628623,7.68371306 20.0857184,7.21540145 19.939053,6.78962292 Z"
                                      fill="#FFAF63" id="Path"></path>
                            </g>
                        </g>
                    </g>
                </g>
            </g>
        </g>
    </g>
</svg>
